<svg xmlns="http://www.w3.org/2000/svg" viewBox="0 0 36 47" width="36" height="47">
    <clipPath id="mark-mask">
        <polygon class="cls-1" points="0 0 0 37 0 47 18 38 36 47 36 37 36 0 0 0"/>
    </clipPath>
</svg>